Making Backyards Affordable for All – STA 9750 Submission Material
…
In this section:

Construct rent burden and housing growth metrics from ACS and BLS data.

Standardize both indicators to a 0–100 scale for comparability.

Visualize trends and relationships between rent burden, housing growth, and population change.

Identify CBSAs showing “YIMBY” outcomes — high initial rent burden, declining rents, population growth, and strong housing development.

Interpret results to understand how housing supply influences affordability across U.S. cities.

Develop a concise policy brief summarizing the key findings, highlighting data-driven evidence on housing growth and affordability. The brief serves as an “elevator pitch” for proposed legislation supporting sustainable housing development, with hypothetical congressional sponsors representing major urban centers such as Houston, TX and New York, NY.

# A tibble: 7,279 × 4
   GEOID NAME                                           household_income  year
   <dbl> <chr>                                                     <dbl> <dbl>
 1 10140 Aberdeen, WA Micro Area                                   36345  2009
 2 10180 Abilene, TX Metro Area                                    42931  2009
 3 10300 Adrian, MI Micro Area                                     45640  2009
 4 10380 Aguadilla-Isabela-San Sebasti?n, PR Metro Area            13470  2009
 5 10420 Akron, OH Metro Area                                      47482  2009
 6 10500 Albany, GA Metro Area                                     36218  2009
 7 10540 Albany-Lebanon, OR Micro Area                             47669  2009
 8 10580 Albany-Schenectady-Troy, NY Metro Area                    57677  2009
 9 10700 Albertville, AL Micro Area                                37284  2009
10 10740 Albuquerque, NM Metro Area                                46824  2009
# ℹ 7,269 more rows

# A tibble: 7,279 × 4
   GEOID NAME                                           monthly_rent  year
   <dbl> <chr>                                                 <dbl> <dbl>
 1 10140 Aberdeen, WA Micro Area                                 650  2009
 2 10180 Abilene, TX Metro Area                                  712  2009
 3 10300 Adrian, MI Micro Area                                   645  2009
 4 10380 Aguadilla-Isabela-San Sebasti?n, PR Metro Area          363  2009
 5 10420 Akron, OH Metro Area                                    723  2009
 6 10500 Albany, GA Metro Area                                   624  2009
 7 10540 Albany-Lebanon, OR Micro Area                           761  2009
 8 10580 Albany-Schenectady-Troy, NY Metro Area                  833  2009
 9 10700 Albertville, AL Micro Area                              579  2009
10 10740 Albuquerque, NM Metro Area                              726  2009
# ℹ 7,269 more rows

# A tibble: 7,279 × 4
   GEOID NAME                                           population  year
   <dbl> <chr>                                               <dbl> <dbl>
 1 10140 Aberdeen, WA Micro Area                             71797  2009
 2 10180 Abilene, TX Metro Area                             160266  2009
 3 10300 Adrian, MI Micro Area                               99837  2009
 4 10380 Aguadilla-Isabela-San Sebasti?n, PR Metro Area     342495  2009
 5 10420 Akron, OH Metro Area                               699935  2009
 6 10500 Albany, GA Metro Area                              164238  2009
 7 10540 Albany-Lebanon, OR Micro Area                      116584  2009
 8 10580 Albany-Schenectady-Troy, NY Metro Area             857592  2009
 9 10700 Albertville, AL Micro Area                          90399  2009
10 10740 Albuquerque, NM Metro Area                         856216  2009
# ℹ 7,269 more rows

# A tibble: 7,279 × 4
   GEOID NAME                                           households  year
   <dbl> <chr>                                               <dbl> <dbl>
 1 10140 Aberdeen, WA Micro Area                             27759  2009
 2 10180 Abilene, TX Metro Area                              58052  2009
 3 10300 Adrian, MI Micro Area                               36835  2009
 4 10380 Aguadilla-Isabela-San Sebasti?n, PR Metro Area      91805  2009
 5 10420 Akron, OH Metro Area                               281769  2009
 6 10500 Albany, GA Metro Area                               60101  2009
 7 10540 Albany-Lebanon, OR Micro Area                       43953  2009
 8 10580 Albany-Schenectady-Troy, NY Metro Area             336492  2009
 9 10700 Albertville, AL Micro Area                          32651  2009
10 10740 Albuquerque, NM Metro Area                         334647  2009
# ℹ 7,269 more rows

# A tibble: 5,658 × 3
    CBSA new_housing_units_permitted  year
   <dbl>                       <dbl> <dbl>
 1 10180                         214  2009
 2 10420                         741  2009
 3 10500                         213  2009
 4 10580                        1380  2009
 5 10740                        1692  2009
 6 10780                         396  2009
 7 10900                        1648  2009
 8 11020                         125  2009
 9 11100                         642  2009
10 11180                         122  2009
# ℹ 5,648 more rows

# A tibble: 801 × 8
   level1_title   level2_title level3_title level4_title level1_code level2_code
   <chr>          <chr>        <chr>        <chr>              <dbl> <chr>      
 1 Agriculture, … Crop produc… Oilseed and… Soybean far…          11 111        
 2 Agriculture, … Crop produc… Oilseed and… Oilseed (ex…          11 111        
 3 Agriculture, … Crop produc… Oilseed and… Dry pea and…          11 111        
 4 Agriculture, … Crop produc… Oilseed and… Wheat farmi…          11 111        
 5 Agriculture, … Crop produc… Oilseed and… Corn farming          11 111        
 6 Agriculture, … Crop produc… Oilseed and… Rice farming          11 111        
 7 Agriculture, … Crop produc… Oilseed and… Other grain…          11 111        
 8 Agriculture, … Crop produc… Vegetable a… Vegetable a…          11 111        
 9 Agriculture, … Crop produc… Fruit and t… Orange grov…          11 111        
10 Agriculture, … Crop produc… Fruit and t… Citrus (exc…          11 111        
# ℹ 791 more rows
# ℹ 2 more variables: level3_code <chr>, level4_code <chr>

# A tibble: 4,442,181 × 6
    YEAR FIPS  INDUSTRY EMPLOYMENT TOTAL_WAGES AVG_WAGE
   <dbl> <chr>    <dbl>      <dbl>       <dbl>    <dbl>
 1  2009 C1018      101       8050   342280951   42519.
 2  2009 C1018     1011       1769    86660038   48988.
 3  2009 C1018     1012       3328   151822573   45620.
 4  2009 C1018     1013       2952   103798340   35162.
 5  2009 C1018      102      42334  1284997543   30354.
 6  2009 C1018     1021      11993   368955371   30764.
 7  2009 C1018     1022          0           0      NA 
 8  2009 C1018     1023       3575   138206437   38659.
 9  2009 C1018     1024       4697   149886226   31911.
10  2009 C1018     1025      11950   452254692   37846.
# ℹ 4,442,171 more rows

# A tibble: 7,279 × 4
   GEOID NAME                                           households  year
   <dbl> <chr>                                               <dbl> <dbl>
 1 10140 Aberdeen, WA Micro Area                             27759  2009
 2 10180 Abilene, TX Metro Area                              58052  2009
 3 10300 Adrian, MI Micro Area                               36835  2009
 4 10380 Aguadilla-Isabela-San Sebasti?n, PR Metro Area      91805  2009
 5 10420 Akron, OH Metro Area                               281769  2009
 6 10500 Albany, GA Metro Area                               60101  2009
 7 10540 Albany-Lebanon, OR Micro Area                       43953  2009
 8 10580 Albany-Schenectady-Troy, NY Metro Area             336492  2009
 9 10700 Albertville, AL Micro Area                          32651  2009
10 10740 Albuquerque, NM Metro Area                         334647  2009
# ℹ 7,269 more rows
…
